{
  "project_info": {
    "project_number": "447235644767",
    "firebase_url": "https://schubo-11db7.firebaseio.com",
    "project_id": "schubo-11db7",
    "storage_bucket": "schubo-11db7.appspot.com"
  },
  "client": [
    {
      "client_info": {
        "mobilesdk_app_id": "1:447235644767:android:c9be82ded5db92d0",
        "android_client_info": {
          "package_name": "schoolbus.ego.com.goschool"
        }
      },
      "oauth_client": [
        {
          "client_id": "447235644767-2ech2o6sm348pol8coqrip0vkn20fqik.apps.googleusercontent.com",
          "client_type": 1,
          "android_info": {
            "package_name": "schoolbus.ego.com.goschool",
            "certificate_hash": "91eb6676bfe4bad2bd944b53bce2109d6e01d587"
          }
        },
        {
          "client_id": "447235644767-fnccml429upvcehtjig0jps64tkk4sno.apps.googleusercontent.com",
          "client_type": 3
        }
      ],
      "api_key": [
        {
          "current_key": "AIzaSyAcgGSg1UuugYNfvNcT94nXWXyV_bnXTl4"
        }
      ],
      "services": {
        "analytics_service": {
          "status": 1
        },
        "appinvite_service": {
          "status": 2,
          "other_platform_oauth_client": [
            {
              "client_id": "447235644767-fnccml429upvcehtjig0jps64tkk4sno.apps.googleusercontent.com",
              "client_type": 3
            }
          ]
        },
        "ads_service": {
          "status": 2
        }
      }
    }
  ],
  "configuration_version": "1"
}